Project 1: Wrangling, Exploration, Visualization
…
## # A tibble: 7 x 6
##    YEAR STATE Heart_Disease_D Heart_Disease_M Hypertension_De
##   <dbl> <chr>            <dbl>            <dbl>            <dbl>
## 1  2019 AL               13448             220.              624
## 2  2018 AL               13473             225.              564
## 3  2017 AL               13110             223.              531
## 4  2016 AL               12832             222.              560
## 5  2015 AL               12981             230.              519
## 6  2014 AL               12461             224               553
## 7  2005 AL               12869             274.              428
## #  with 1 more variable: Hypertension_Mortality_per_100000_People <dbl>

Mortality_joined %>% select(STATE, Heart_Disease_Deaths)

## # A tibble: 350 x 2
##    STATE Heart_Disease_Deaths
##    <chr>                <dbl>
##  1 AL                   13448
##  2 AK                     843
##  3 AZ                   12587
##  4 AR                    8669
##  5 CA                   62394
##  6 CO                    7762
##  7 CT                    7354
##  8 DE                    2053
##  9 FL                   47144
## 10 GA                   19543
## #  with 340 more rows

Mortality_joined %>% arrange(desc("Heart_Disease_Mortality_per_100000_People"))

## # A tibble: 350 x 6
##     YEAR STATE Heart_Disease_D Heart_Disease_M Hypertension_De
##    <dbl> <chr>            <dbl>            <dbl>            <dbl>
##  1  2019 AL               13448             220.              624
##  2  2019 AK                 843             130.               55
##  3  2019 AZ               12587             134              1010
##  4  2019 AR                8669             226.              363
##  5  2019 CA               62394             137.             5598
##  6  2019 CO                7762             128.              406
##  7  2019 CT                7354             143.              330
##  8  2019 DE                2053             154.               93
##  9  2019 FL               47144             140.             2740
## 10  2019 GA               19543             176.             1183
## #  with 340 more rows, and 1 more variable:
## #   Hypertension_Mortality_per_100000_People <dbl>

Mortality_joined %>% group_by(STATE)

## # A tibble: 350 x 6
## # Groups:   STATE [50]
##     YEAR STATE Heart_Disease_D Heart_Disease_M Hypertension_De
##    <dbl> <chr>            <dbl>            <dbl>            <dbl>
##  1  2019 AL               13448             220.              624
##  2  2019 AK                 843             130.               55
##  3  2019 AZ               12587             134              1010
##  4  2019 AR                8669             226.              363
##  5  2019 CA               62394             137.             5598
##  6  2019 CO                7762             128.              406
##  7  2019 CT                7354             143.              330
##  8  2019 DE                2053             154.               93
##  9  2019 FL               47144             140.             2740
## 10  2019 GA               19543             176.             1183
## #  with 340 more rows, and 1 more variable:
## #   Hypertension_Mortality_per_100000_People <dbl>

Mortality_joined %>% mutate(Heart_Disease_Mortality_per_10000_People = (Heart_Disease_Mortality_per_100000_People)/10)

## # A tibble: 350 x 7
##     YEAR STATE Heart_Disease_D Heart_Disease_M Hypertension_De
##    <dbl> <chr>            <dbl>            <dbl>            <dbl>
##  1  2019 AL               13448             220.              624
##  2  2019 AK                 843             130.               55
##  3  2019 AZ               12587             134              1010
##  4  2019 AR                8669             226.              363
##  5  2019 CA               62394             137.             5598
##  6  2019 CO                7762             128.              406
##  7  2019 CT                7354             143.              330
##  8  2019 DE                2053             154.               93
##  9  2019 FL               47144             140.             2740
## 10  2019 GA               19543             176.             1183
## #  with 340 more rows, and 2 more variables:
## #   Hypertension_Mortality_per_100000_People <dbl>,
## #   Heart_Disease_Mortality_per_10000_People <dbl>

Mortality_joined %>% mutate(Hypertension_Mortality_per_10000_People = (Hypertension_Mortality_per_100000_People)/10)

## # A tibble: 350 x 7
##     YEAR STATE Heart_Disease_D Heart_Disease_M Hypertension_De
##    <dbl> <chr>            <dbl>            <dbl>            <dbl>
##  1  2019 AL               13448             220.              624
##  2  2019 AK                 843             130.               55
##  3  2019 AZ               12587             134              1010
##  4  2019 AR                8669             226.              363
##  5  2019 CA               62394             137.             5598
##  6  2019 CO                7762             128.              406
##  7  2019 CT                7354             143.              330
##  8  2019 DE                2053             154.               93
##  9  2019 FL               47144             140.             2740
## 10  2019 GA               19543             176.             1183
## #  with 340 more rows, and 2 more variables:
## #   Hypertension_Mortality_per_100000_People <dbl>,
## #   Hypertension_Mortality_per_10000_People <dbl>

Mortality_joined %>% summarize(mean(Heart_Disease_Deaths > 5000))

## # A tibble: 1 x 1
##   `mean(Heart_Disease_Deaths > 5000)`
##                                 <dbl>
## 1                               0.689

Mortality_joined %>% filter(str_detect(STATE, "^A"))

## # A tibble: 28 x 6
##     YEAR STATE Heart_Disease_D Heart_Disease_M Hypertension_De
##    <dbl> <chr>            <dbl>            <dbl>            <dbl>
##  1  2019 AL               13448             220.              624
##  2  2019 AK                 843             130.               55
##  3  2019 AZ               12587             134              1010
##  4  2019 AR                8669             226.              363
##  5  2018 AL               13473             225.              564
##  6  2018 AK                 815             130.               50
##  7  2018 AZ               12455             136.              928
##  8  2018 AR                8171             217.              424
##  9  2017 AL               13110             223.              531
## 10  2017 AK                 814             135                40
## #  with 18 more rows, and 1 more variable:
## #   Hypertension_Mortality_per_100000_People <dbl>
…
## # A tibble: 1 x 4
##   Heart_Disease_De Heart_Disease_Mortal Hypertension_Dea Hypertension_Mortal
##               <dbl>                 <dbl>             <dbl>                <dbl>
## 1              9014                  163.               440                  7.9

For the procedure of these summary statistics, I first piped my joined dataset into the summarize_at function which applies a given function to the selected columns in quotes. For the functions, I used, I decided to do a mean, standard deviation, minimum, maximum, and median, for each of the columns. These are the 5 traditional summary statistics. In my opinion, the most interesting result out of these 5 summary statistics is the mean for Heart Disease Death Counts which is 12823. Even though many of the states have much lower Heart Disease Death Counts than 12823, there are a few states, notably California and Texas that pull the average up!

# 2 functions using Group by categorical variable
Mortality_joined %>% group_by(STATE, YEAR) %>% summarize_at(c("Heart_Disease_Deaths", 
    "Heart_Disease_Mortality_per_100000_People", "Hypertension_Deaths", 
    "Hypertension_Mortality_per_100000_People"), mean)

## # A tibble: 350 x 6
## # Groups:   STATE [50]
##    STATE  YEAR Heart_Disease_D Heart_Disease_M Hypertension_De
##    <chr> <dbl>            <dbl>            <dbl>            <dbl>
##  1 AK     2005              627             166.               16
##  2 AK     2014              782             147.               33
##  3 AK     2015              846             154.               38
##  4 AK     2016              831             141                30
##  5 AK     2017              814             135                40
##  6 AK     2018              815             130.               50
##  7 AK     2019              843             130.               55
##  8 AL     2005            12869             274.              428
##  9 AL     2014            12461             224               553
## 10 AL     2015            12981             230.              519
## #  with 340 more rows, and 1 more variable:
## #   Hypertension_Mortality_per_100000_People <dbl>
…
# define my own function
Per_10000 <- function(x) {
    value <- x/10
    return(value)
}

Mortality_joined %>% group_by(STATE) %>% summarize(Heart_Disease_Mortality_per_10000_People = Per_10000(Heart_Disease_Mortality_per_100000_People))

## # A tibble: 350 x 2
## # Groups:   STATE [50]
##    STATE Heart_Disease_Mortality_per_10000_People
##    <chr>                                    <dbl>
##  1 AK                                        13.0
##  2 AK                                        13.0
##  3 AK                                        13.5
##  4 AK                                        14.1
##  5 AK                                        15.4
##  6 AK                                        14.7
##  7 AK                                        16.6
##  8 AL                                        22.0
##  9 AL                                        22.5
## 10 AL                                        22.3
## #  with 340 more rows

# n() inside group_by
Mortality_joined %>% group_by(STATE) %>% summarize(Heart_Disease_and_Hypertension_Count = n())

## # A tibble: 50 x 2
##    STATE Heart_Disease_and_Hypertension_Count
##    <chr>                                <int>
##  1 AK                                       7
##  2 AL                                       7
##  3 AR                                       7
##  4 AZ                                       7
##  5 CA                                       7
##  6 CO                                       7
##  7 CT                                       7
##  8 DE                                       7
##  9 FL                                       7
## 10 GA                                       7
## #  with 40 more rows
…
2019

13403.79

28.68703

942.4136

2.178373

# table using pivot_wider that can be used to make a table
# using kable package
Mortality_joined %>% pivot_wider(names_from = YEAR, values_from = Heart_Disease_Deaths)

## # A tibble: 350 x 11
##    STATE Heart_Disease_M Hypertension_De Hypertension_Mo `2019` `2018` `2017`
##    <chr>            <dbl>            <dbl>            <dbl>  <dbl>  <dbl>  <dbl>
##  1 AL                220.              624             10.3  13448     NA     NA
##  2 AK                130.               55              8.7    843     NA     NA
##  3 AZ                134              1010             10.7  12587     NA     NA
##  4 AR                226.              363              9.5   8669     NA     NA
##  5 CA                137.             5598             12.2  62394     NA     NA
##  6 CO                128.              406              6.7   7762     NA     NA
##  7 CT                143.              330              6.2   7354     NA     NA
##  8 DE                154.               93              6.9   2053     NA     NA
##  9 FL                140.             2740              8.2  47144     NA     NA
## 10 GA                176.             1183             10.5  19543     NA     NA
## #  with 340 more rows, and 4 more variables: `2016` <dbl>, `2015` <dbl>,
## #   `2014` <dbl>, `2005` <dbl>
…
